('/home/robotics45c/Desktop/rov2019/Robot/Systems/dist/gui',
 True,
 False,
 False,
 None,
 None,
 False,
 False,
 None,
 True,
 'gui.pkg',
 [('PYZ-00.pyz',
   '/home/robotics45c/Desktop/rov2019/Robot/Systems/build/gui/PYZ-00.pyz',
   'PYZ'),
  ('struct', '/usr/lib/python3.5/struct.pyo', 'PYMODULE'),
  ('pyimod01_os_path',
   '/usr/local/lib/python3.5/dist-packages/PyInstaller/loader/pyimod01_os_path.pyc',
   'PYMODULE'),
  ('pyimod02_archive',
   '/usr/local/lib/python3.5/dist-packages/PyInstaller/loader/pyimod02_archive.pyc',
   'PYMODULE'),
  ('pyimod03_importers',
   '/usr/local/lib/python3.5/dist-packages/PyInstaller/loader/pyimod03_importers.pyc',
   'PYMODULE'),
  ('pyiboot01_bootstrap',
   '/usr/local/lib/python3.5/dist-packages/PyInstaller/loader/pyiboot01_bootstrap.py',
   'PYSOURCE'),
  ('pyi_rth_qt4plugins',
   '/usr/local/lib/python3.5/dist-packages/PyInstaller/loader/rthooks/pyi_rth_qt4plugins.py',
   'PYSOURCE'),
  ('pyi_rth_multiprocessing',
   '/usr/local/lib/python3.5/dist-packages/PyInstaller/loader/rthooks/pyi_rth_multiprocessing.py',
   'PYSOURCE'),
  ('pyi_rth_pkgres',
   '/usr/local/lib/python3.5/dist-packages/PyInstaller/loader/rthooks/pyi_rth_pkgres.py',
   'PYSOURCE'),
  ('gui', '/home/robotics45c/Desktop/rov2019/Robot/Systems/gui.py', 'PYSOURCE'),
  ('libexpat.so.1', '/lib/x86_64-linux-gnu/libexpat.so.1', 'BINARY'),
  ('libz.so.1', '/lib/x86_64-linux-gnu/libz.so.1', 'BINARY'),
  ('qt4_plugins/imageformats/libqmng.so',
   '/usr/lib/x86_64-linux-gnu/qt4/plugins/imageformats/libqmng.so',
   'BINARY'),
  ('qt4_plugins/graphicssystems/libqtracegraphicssystem.so',
   '/usr/lib/x86_64-linux-gnu/qt4/plugins/graphicssystems/libqtracegraphicssystem.so',
   'BINARY'),
  ('qt4_plugins/codecs/libqjpcodecs.so',
   '/usr/lib/x86_64-linux-gnu/qt4/plugins/codecs/libqjpcodecs.so',
   'BINARY'),
  ('qt4_plugins/imageformats/libqgif.so',
   '/usr/lib/x86_64-linux-gnu/qt4/plugins/imageformats/libqgif.so',
   'BINARY'),
  ('qt4_plugins/codecs/libqtwcodecs.so',
   '/usr/lib/x86_64-linux-gnu/qt4/plugins/codecs/libqtwcodecs.so',
   'BINARY'),
  ('qt4_plugins/imageformats/libqtga.so',
   '/usr/lib/x86_64-linux-gnu/qt4/plugins/imageformats/libqtga.so',
   'BINARY'),
  ('qt4_plugins/accessible/libqtaccessiblecompatwidgets.so',
   '/usr/lib/x86_64-linux-gnu/qt4/plugins/accessible/libqtaccessiblecompatwidgets.so',
   'BINARY'),
  ('qt4_plugins/iconengines/libqsvgicon.so',
   '/usr/lib/x86_64-linux-gnu/qt4/plugins/iconengines/libqsvgicon.so',
   'BINARY'),
  ('qt4_plugins/accessible/libqtaccessiblewidgets.so',
   '/usr/lib/x86_64-linux-gnu/qt4/plugins/accessible/libqtaccessiblewidgets.so',
   'BINARY'),
  ('qt4_plugins/codecs/libqcncodecs.so',
   '/usr/lib/x86_64-linux-gnu/qt4/plugins/codecs/libqcncodecs.so',
   'BINARY'),
  ('qt4_plugins/imageformats/libqjpeg.so',
   '/usr/lib/x86_64-linux-gnu/qt4/plugins/imageformats/libqjpeg.so',
   'BINARY'),
  ('qt4_plugins/graphicssystems/libqglgraphicssystem.so',
   '/usr/lib/x86_64-linux-gnu/qt4/plugins/graphicssystems/libqglgraphicssystem.so',
   'BINARY'),
  ('qt4_plugins/imageformats/libqsvg.so',
   '/usr/lib/x86_64-linux-gnu/qt4/plugins/imageformats/libqsvg.so',
   'BINARY'),
  ('qt4_plugins/imageformats/libqtiff.so',
   '/usr/lib/x86_64-linux-gnu/qt4/plugins/imageformats/libqtiff.so',
   'BINARY'),
  ('qt4_plugins/codecs/libqkrcodecs.so',
   '/usr/lib/x86_64-linux-gnu/qt4/plugins/codecs/libqkrcodecs.so',
   'BINARY'),
  ('qt4_plugins/inputmethods/libqimsw-multi.so',
   '/usr/lib/x86_64-linux-gnu/qt4/plugins/inputmethods/libqimsw-multi.so',
   'BINARY'),
  ('qt4_plugins/imageformats/libqico.so',
   '/usr/lib/x86_64-linux-gnu/qt4/plugins/imageformats/libqico.so',
   'BINARY'),
  ('_multiprocessing',
   '/usr/lib/python3.5/lib-dynload/_multiprocessing.cpython-35m-x86_64-linux-gnu.so',
   'EXTENSION'),
  ('mmap',
   '/usr/lib/python3.5/lib-dynload/mmap.cpython-35m-x86_64-linux-gnu.so',
   'EXTENSION'),
  ('PySide.QtCore',
   '/usr/lib/python3/dist-packages/PySide/QtCore.cpython-35m-x86_64-linux-gnu.so',
   'EXTENSION'),
  ('PySide.QtNetwork',
   '/usr/lib/python3/dist-packages/PySide/QtNetwork.cpython-35m-x86_64-linux-gnu.so',
   'EXTENSION'),
  ('resource',
   '/usr/lib/python3.5/lib-dynload/resource.cpython-35m-x86_64-linux-gnu.so',
   'EXTENSION'),
  ('_ssl',
   '/usr/lib/python3.5/lib-dynload/_ssl.cpython-35m-x86_64-linux-gnu.so',
   'EXTENSION'),
  ('_codecs_hk',
   '/usr/lib/python3.5/lib-dynload/_codecs_hk.cpython-35m-x86_64-linux-gnu.so',
   'EXTENSION'),
  ('_codecs_jp',
   '/usr/lib/python3.5/lib-dynload/_codecs_jp.cpython-35m-x86_64-linux-gnu.so',
   'EXTENSION'),
  ('_codecs_cn',
   '/usr/lib/python3.5/lib-dynload/_codecs_cn.cpython-35m-x86_64-linux-gnu.so',
   'EXTENSION'),
  ('_codecs_tw',
   '/usr/lib/python3.5/lib-dynload/_codecs_tw.cpython-35m-x86_64-linux-gnu.so',
   'EXTENSION'),
  ('_codecs_iso2022',
   '/usr/lib/python3.5/lib-dynload/_codecs_iso2022.cpython-35m-x86_64-linux-gnu.so',
   'EXTENSION'),
  ('_codecs_kr',
   '/usr/lib/python3.5/lib-dynload/_codecs_kr.cpython-35m-x86_64-linux-gnu.so',
   'EXTENSION'),
  ('_multibytecodec',
   '/usr/lib/python3.5/lib-dynload/_multibytecodec.cpython-35m-x86_64-linux-gnu.so',
   'EXTENSION'),
  ('_opcode',
   '/usr/lib/python3.5/lib-dynload/_opcode.cpython-35m-x86_64-linux-gnu.so',
   'EXTENSION'),
  ('readline',
   '/usr/lib/python3.5/lib-dynload/readline.cpython-35m-x86_64-linux-gnu.so',
   'EXTENSION'),
  ('_ctypes',
   '/usr/lib/python3.5/lib-dynload/_ctypes.cpython-35m-x86_64-linux-gnu.so',
   'EXTENSION'),
  ('termios',
   '/usr/lib/python3.5/lib-dynload/termios.cpython-35m-x86_64-linux-gnu.so',
   'EXTENSION'),
  ('_hashlib',
   '/usr/lib/python3.5/lib-dynload/_hashlib.cpython-35m-x86_64-linux-gnu.so',
   'EXTENSION'),
  ('_bz2',
   '/usr/lib/python3.5/lib-dynload/_bz2.cpython-35m-x86_64-linux-gnu.so',
   'EXTENSION'),
  ('_lzma',
   '/usr/lib/python3.5/lib-dynload/_lzma.cpython-35m-x86_64-linux-gnu.so',
   'EXTENSION'),
  ('PyQt4.QtCore',
   '/usr/lib/python3/dist-packages/PyQt4/QtCore.cpython-35m-x86_64-linux-gnu.so',
   'EXTENSION'),
  ('sip',
   '/usr/lib/python3/dist-packages/sip.cpython-35m-x86_64-linux-gnu.so',
   'EXTENSION'),
  ('PyQt4.QtGui',
   '/usr/lib/python3/dist-packages/PyQt4/QtGui.cpython-35m-x86_64-linux-gnu.so',
   'EXTENSION'),
  ('cv2',
   '/usr/local/lib/python3.5/dist-packages/cv2.cpython-35m-x86_64-linux-gnu.so',
   'EXTENSION'),
  ('numpy.core.multiarray',
   '/usr/local/lib/python3.5/dist-packages/numpy/core/multiarray.cpython-35m-x86_64-linux-gnu.so',
   'EXTENSION'),
  ('numpy.core.umath',
   '/usr/local/lib/python3.5/dist-packages/numpy/core/umath.cpython-35m-x86_64-linux-gnu.so',
   'EXTENSION'),
  ('_curses',
   '/usr/lib/python3.5/lib-dynload/_curses.cpython-35m-x86_64-linux-gnu.so',
   'EXTENSION'),
  ('scipy._lib._fpumode',
   '/usr/local/lib/python3.5/dist-packages/scipy/_lib/_fpumode.cpython-35m-x86_64-linux-gnu.so',
   'EXTENSION'),
  ('scipy._lib._ccallback_c',
   '/usr/local/lib/python3.5/dist-packages/scipy/_lib/_ccallback_c.cpython-35m-x86_64-linux-gnu.so',
   'EXTENSION'),
  ('scipy._lib.messagestream',
   '/usr/local/lib/python3.5/dist-packages/scipy/_lib/messagestream.cpython-35m-x86_64-linux-gnu.so',
   'EXTENSION'),
  ('scipy.sparse.csgraph._tools',
   '/usr/local/lib/python3.5/dist-packages/scipy/sparse/csgraph/_tools.cpython-35m-x86_64-linux-gnu.so',
   'EXTENSION'),
  ('scipy.sparse.csgraph._reordering',
   '/usr/local/lib/python3.5/dist-packages/scipy/sparse/csgraph/_reordering.cpython-35m-x86_64-linux-gnu.so',
   'EXTENSION'),
  ('scipy.sparse.csgraph._min_spanning_tree',
   '/usr/local/lib/python3.5/dist-packages/scipy/sparse/csgraph/_min_spanning_tree.cpython-35m-x86_64-linux-gnu.so',
   'EXTENSION'),
  ('scipy.sparse.csgraph._traversal',
   '/usr/local/lib/python3.5/dist-packages/scipy/sparse/csgraph/_traversal.cpython-35m-x86_64-linux-gnu.so',
   'EXTENSION'),
  ('scipy.sparse.csgraph._shortest_path',
   '/usr/local/lib/python3.5/dist-packages/scipy/sparse/csgraph/_shortest_path.cpython-35m-x86_64-linux-gnu.so',
   'EXTENSION'),
  ('scipy.sparse._sparsetools',
   '/usr/local/lib/python3.5/dist-packages/scipy/sparse/_sparsetools.cpython-35m-x86_64-linux-gnu.so',
   'EXTENSION'),
  ('scipy.sparse._csparsetools',
   '/usr/local/lib/python3.5/dist-packages/scipy/sparse/_csparsetools.cpython-35m-x86_64-linux-gnu.so',
   'EXTENSION'),
  ('scipy.special._ellip_harm_2',
   '/usr/local/lib/python3.5/dist-packages/scipy/special/_ellip_harm_2.cpython-35m-x86_64-linux-gnu.so',
   'EXTENSION'),
  ('scipy.special._comb',
   '/usr/local/lib/python3.5/dist-packages/scipy/special/_comb.cpython-35m-x86_64-linux-gnu.so',
   'EXTENSION'),
  ('scipy.special.specfun',
   '/usr/local/lib/python3.5/dist-packages/scipy/special/specfun.cpython-35m-x86_64-linux-gnu.so',
   'EXTENSION'),
  ('scipy.special._ufuncs',
   '/usr/local/lib/python3.5/dist-packages/scipy/special/_ufuncs.cpython-35m-x86_64-linux-gnu.so',
   'EXTENSION'),
  ('scipy.special._ufuncs_cxx',
   '/usr/local/lib/python3.5/dist-packages/scipy/special/_ufuncs_cxx.cpython-35m-x86_64-linux-gnu.so',
   'EXTENSION'),
  ('scipy.spatial._hausdorff',
   '/usr/local/lib/python3.5/dist-packages/scipy/spatial/_hausdorff.cpython-35m-x86_64-linux-gnu.so',
   'EXTENSION'),
  ('scipy.spatial._distance_wrap',
   '/usr/local/lib/python3.5/dist-packages/scipy/spatial/_distance_wrap.cpython-35m-x86_64-linux-gnu.so',
   'EXTENSION'),
  ('scipy.spatial._voronoi',
   '/usr/local/lib/python3.5/dist-packages/scipy/spatial/_voronoi.cpython-35m-x86_64-linux-gnu.so',
   'EXTENSION'),
  ('scipy.spatial.qhull',
   '/usr/local/lib/python3.5/dist-packages/scipy/spatial/qhull.cpython-35m-x86_64-linux-gnu.so',
   'EXTENSION'),
  ('scipy.spatial.ckdtree',
   '/usr/local/lib/python3.5/dist-packages/scipy/spatial/ckdtree.cpython-35m-x86_64-linux-gnu.so',
   'EXTENSION'),
  ('scipy.optimize._lsq.givens_elimination',
   '/usr/local/lib/python3.5/dist-packages/scipy/optimize/_lsq/givens_elimination.cpython-35m-x86_64-linux-gnu.so',
   'EXTENSION'),
  ('scipy.optimize._nnls',
   '/usr/local/lib/python3.5/dist-packages/scipy/optimize/_nnls.cpython-35m-x86_64-linux-gnu.so',
   'EXTENSION'),
  ('scipy.optimize._slsqp',
   '/usr/local/lib/python3.5/dist-packages/scipy/optimize/_slsqp.cpython-35m-x86_64-linux-gnu.so',
   'EXTENSION'),
  ('scipy.optimize._zeros',
   '/usr/local/lib/python3.5/dist-packages/scipy/optimize/_zeros.cpython-35m-x86_64-linux-gnu.so',
   'EXTENSION'),
  ('scipy.optimize._minpack',
   '/usr/local/lib/python3.5/dist-packages/scipy/optimize/_minpack.cpython-35m-x86_64-linux-gnu.so',
   'EXTENSION'),
  ('scipy.optimize._trlib._trlib',
   '/usr/local/lib/python3.5/dist-packages/scipy/optimize/_trlib/_trlib.cpython-35m-x86_64-linux-gnu.so',
   'EXTENSION'),
  ('scipy.optimize._cobyla',
   '/usr/local/lib/python3.5/dist-packages/scipy/optimize/_cobyla.cpython-35m-x86_64-linux-gnu.so',
   'EXTENSION'),
  ('scipy.optimize.moduleTNC',
   '/usr/local/lib/python3.5/dist-packages/scipy/optimize/moduleTNC.cpython-35m-x86_64-linux-gnu.so',
   'EXTENSION'),
  ('scipy.optimize._lbfgsb',
   '/usr/local/lib/python3.5/dist-packages/scipy/optimize/_lbfgsb.cpython-35m-x86_64-linux-gnu.so',
   'EXTENSION'),
  ('scipy.optimize.minpack2',
   '/usr/local/lib/python3.5/dist-packages/scipy/optimize/minpack2.cpython-35m-x86_64-linux-gnu.so',
   'EXTENSION'),
  ('scipy.optimize._group_columns',
   '/usr/local/lib/python3.5/dist-packages/scipy/optimize/_group_columns.cpython-35m-x86_64-linux-gnu.so',
   'EXTENSION'),
  ('scipy.linalg._solve_toeplitz',
   '/usr/local/lib/python3.5/dist-packages/scipy/linalg/_solve_toeplitz.cpython-35m-x86_64-linux-gnu.so',
   'EXTENSION'),
  ('scipy.linalg._fblas',
   '/usr/local/lib/python3.5/dist-packages/scipy/linalg/_fblas.cpython-35m-x86_64-linux-gnu.so',
   'EXTENSION'),
  ('scipy.linalg._flapack',
   '/usr/local/lib/python3.5/dist-packages/scipy/linalg/_flapack.cpython-35m-x86_64-linux-gnu.so',
   'EXTENSION'),
  ('scipy.linalg._flinalg',
   '/usr/local/lib/python3.5/dist-packages/scipy/linalg/_flinalg.cpython-35m-x86_64-linux-gnu.so',
   'EXTENSION'),
  ('scipy.sparse.linalg.eigen.arpack._arpack',
   '/usr/local/lib/python3.5/dist-packages/scipy/sparse/linalg/eigen/arpack/_arpack.cpython-35m-x86_64-linux-gnu.so',
   'EXTENSION'),
  ('scipy.sparse.linalg.dsolve._superlu',
   '/usr/local/lib/python3.5/dist-packages/scipy/sparse/linalg/dsolve/_superlu.cpython-35m-x86_64-linux-gnu.so',
   'EXTENSION'),
  ('scipy.sparse.linalg.isolve._iterative',
   '/usr/local/lib/python3.5/dist-packages/scipy/sparse/linalg/isolve/_iterative.cpython-35m-x86_64-linux-gnu.so',
   'EXTENSION'),
  ('scipy.interpolate.interpnd',
   '/usr/local/lib/python3.5/dist-packages/scipy/interpolate/interpnd.cpython-35m-x86_64-linux-gnu.so',
   'EXTENSION'),
  ('scipy.interpolate._ppoly',
   '/usr/local/lib/python3.5/dist-packages/scipy/interpolate/_ppoly.cpython-35m-x86_64-linux-gnu.so',
   'EXTENSION'),
  ('scipy.interpolate._bspl',
   '/usr/local/lib/python3.5/dist-packages/scipy/interpolate/_bspl.cpython-35m-x86_64-linux-gnu.so',
   'EXTENSION'),
  ('scipy.interpolate.dfitpack',
   '/usr/local/lib/python3.5/dist-packages/scipy/interpolate/dfitpack.cpython-35m-x86_64-linux-gnu.so',
   'EXTENSION'),
  ('scipy.interpolate._fitpack',
   '/usr/local/lib/python3.5/dist-packages/scipy/interpolate/_fitpack.cpython-35m-x86_64-linux-gnu.so',
   'EXTENSION'),
  ('scipy.integrate.lsoda',
   '/usr/local/lib/python3.5/dist-packages/scipy/integrate/lsoda.cpython-35m-x86_64-linux-gnu.so',
   'EXTENSION'),
  ('scipy.integrate._dop',
   '/usr/local/lib/python3.5/dist-packages/scipy/integrate/_dop.cpython-35m-x86_64-linux-gnu.so',
   'EXTENSION'),
  ('scipy.integrate.vode',
   '/usr/local/lib/python3.5/dist-packages/scipy/integrate/vode.cpython-35m-x86_64-linux-gnu.so',
   'EXTENSION'),
  ('scipy.integrate._quadpack',
   '/usr/local/lib/python3.5/dist-packages/scipy/integrate/_quadpack.cpython-35m-x86_64-linux-gnu.so',
   'EXTENSION'),
  ('scipy.integrate._odepack',
   '/usr/local/lib/python3.5/dist-packages/scipy/integrate/_odepack.cpython-35m-x86_64-linux-gnu.so',
   'EXTENSION'),
  ('_decimal',
   '/usr/lib/python3.5/lib-dynload/_decimal.cpython-35m-x86_64-linux-gnu.so',
   'EXTENSION'),
  ('PIL._webp',
   '/usr/lib/python3/dist-packages/PIL/_webp.cpython-35m-x86_64-linux-gnu.so',
   'EXTENSION'),
  ('PIL._imaging',
   '/usr/lib/python3/dist-packages/PIL/_imaging.cpython-35m-x86_64-linux-gnu.so',
   'EXTENSION'),
  ('scipy.ndimage._ni_label',
   '/usr/local/lib/python3.5/dist-packages/scipy/ndimage/_ni_label.cpython-35m-x86_64-linux-gnu.so',
   'EXTENSION'),
  ('scipy.ndimage._nd_image',
   '/usr/local/lib/python3.5/dist-packages/scipy/ndimage/_nd_image.cpython-35m-x86_64-linux-gnu.so',
   'EXTENSION'),
  ('scipy.linalg.cython_lapack',
   '/usr/local/lib/python3.5/dist-packages/scipy/linalg/cython_lapack.cpython-35m-x86_64-linux-gnu.so',
   'EXTENSION'),
  ('scipy.linalg.cython_blas',
   '/usr/local/lib/python3.5/dist-packages/scipy/linalg/cython_blas.cpython-35m-x86_64-linux-gnu.so',
   'EXTENSION'),
  ('scipy.linalg._decomp_update',
   '/usr/local/lib/python3.5/dist-packages/scipy/linalg/_decomp_update.cpython-35m-x86_64-linux-gnu.so',
   'EXTENSION'),
  ('numpy.core.multiarray_tests',
   '/usr/local/lib/python3.5/dist-packages/numpy/core/multiarray_tests.cpython-35m-x86_64-linux-gnu.so',
   'EXTENSION'),
  ('numpy.random.mtrand',
   '/usr/local/lib/python3.5/dist-packages/numpy/random/mtrand.cpython-35m-x86_64-linux-gnu.so',
   'EXTENSION'),
  ('numpy.fft.fftpack_lite',
   '/usr/local/lib/python3.5/dist-packages/numpy/fft/fftpack_lite.cpython-35m-x86_64-linux-gnu.so',
   'EXTENSION'),
  ('numpy.linalg._umath_linalg',
   '/usr/local/lib/python3.5/dist-packages/numpy/linalg/_umath_linalg.cpython-35m-x86_64-linux-gnu.so',
   'EXTENSION'),
  ('numpy.linalg.lapack_lite',
   '/usr/local/lib/python3.5/dist-packages/numpy/linalg/lapack_lite.cpython-35m-x86_64-linux-gnu.so',
   'EXTENSION'),
  ('h5py.h5ac',
   '/usr/local/lib/python3.5/dist-packages/h5py/h5ac.cpython-35m-x86_64-linux-gnu.so',
   'EXTENSION'),
  ('h5py.defs',
   '/usr/local/lib/python3.5/dist-packages/h5py/defs.cpython-35m-x86_64-linux-gnu.so',
   'EXTENSION'),
  ('h5py.utils',
   '/usr/local/lib/python3.5/dist-packages/h5py/utils.cpython-35m-x86_64-linux-gnu.so',
   'EXTENSION'),
  ('h5py._proxy',
   '/usr/local/lib/python3.5/dist-packages/h5py/_proxy.cpython-35m-x86_64-linux-gnu.so',
   'EXTENSION'),
  ('h5py._objects',
   '/usr/local/lib/python3.5/dist-packages/h5py/_objects.cpython-35m-x86_64-linux-gnu.so',
   'EXTENSION'),
  ('h5py.h5l',
   '/usr/local/lib/python3.5/dist-packages/h5py/h5l.cpython-35m-x86_64-linux-gnu.so',
   'EXTENSION'),
  ('h5py.h5o',
   '/usr/local/lib/python3.5/dist-packages/h5py/h5o.cpython-35m-x86_64-linux-gnu.so',
   'EXTENSION'),
  ('h5py.h5',
   '/usr/local/lib/python3.5/dist-packages/h5py/h5.cpython-35m-x86_64-linux-gnu.so',
   'EXTENSION'),
  ('h5py.h5i',
   '/usr/local/lib/python3.5/dist-packages/h5py/h5i.cpython-35m-x86_64-linux-gnu.so',
   'EXTENSION'),
  ('h5py.h5p',
   '/usr/local/lib/python3.5/dist-packages/h5py/h5p.cpython-35m-x86_64-linux-gnu.so',
   'EXTENSION'),
  ('h5py.h5t',
   '/usr/local/lib/python3.5/dist-packages/h5py/h5t.cpython-35m-x86_64-linux-gnu.so',
   'EXTENSION'),
  ('h5py.h5s',
   '/usr/local/lib/python3.5/dist-packages/h5py/h5s.cpython-35m-x86_64-linux-gnu.so',
   'EXTENSION'),
  ('h5py.h5r',
   '/usr/local/lib/python3.5/dist-packages/h5py/h5r.cpython-35m-x86_64-linux-gnu.so',
   'EXTENSION'),
  ('h5py.h5g',
   '/usr/local/lib/python3.5/dist-packages/h5py/h5g.cpython-35m-x86_64-linux-gnu.so',
   'EXTENSION'),
  ('h5py.h5fd',
   '/usr/local/lib/python3.5/dist-packages/h5py/h5fd.cpython-35m-x86_64-linux-gnu.so',
   'EXTENSION'),
  ('h5py.h5f',
   '/usr/local/lib/python3.5/dist-packages/h5py/h5f.cpython-35m-x86_64-linux-gnu.so',
   'EXTENSION'),
  ('h5py.h5ds',
   '/usr/local/lib/python3.5/dist-packages/h5py/h5ds.cpython-35m-x86_64-linux-gnu.so',
   'EXTENSION'),
  ('h5py.h5d',
   '/usr/local/lib/python3.5/dist-packages/h5py/h5d.cpython-35m-x86_64-linux-gnu.so',
   'EXTENSION'),
  ('h5py.h5a',
   '/usr/local/lib/python3.5/dist-packages/h5py/h5a.cpython-35m-x86_64-linux-gnu.so',
   'EXTENSION'),
  ('h5py.h5z',
   '/usr/local/lib/python3.5/dist-packages/h5py/h5z.cpython-35m-x86_64-linux-gnu.so',
   'EXTENSION'),
  ('h5py._conv',
   '/usr/local/lib/python3.5/dist-packages/h5py/_conv.cpython-35m-x86_64-linux-gnu.so',
   'EXTENSION'),
  ('h5py._errors',
   '/usr/local/lib/python3.5/dist-packages/h5py/_errors.cpython-35m-x86_64-linux-gnu.so',
   'EXTENSION'),
  ('google.protobuf.pyext._message',
   '/usr/local/lib/python3.5/dist-packages/google/protobuf/pyext/_message.cpython-35m-x86_64-linux-gnu.so',
   'EXTENSION'),
  ('google.protobuf.internal._api_implementation',
   '/usr/local/lib/python3.5/dist-packages/google/protobuf/internal/_api_implementation.cpython-35m-x86_64-linux-gnu.so',
   'EXTENSION'),
  ('tensorflow.python.framework.fast_tensor_util',
   '/usr/local/lib/python3.5/dist-packages/tensorflow/python/framework/fast_tensor_util.so',
   'EXTENSION'),
  ('_pywrap_tensorflow_internal',
   '/usr/local/lib/python3.5/dist-packages/tensorflow/python/_pywrap_tensorflow_internal.so',
   'EXTENSION'),
  ('scipy.stats.mvn',
   '/usr/local/lib/python3.5/dist-packages/scipy/stats/mvn.cpython-35m-x86_64-linux-gnu.so',
   'EXTENSION'),
  ('scipy.stats.statlib',
   '/usr/local/lib/python3.5/dist-packages/scipy/stats/statlib.cpython-35m-x86_64-linux-gnu.so',
   'EXTENSION'),
  ('scipy.stats._stats',
   '/usr/local/lib/python3.5/dist-packages/scipy/stats/_stats.cpython-35m-x86_64-linux-gnu.so',
   'EXTENSION'),
  ('_csv',
   '/usr/lib/python3.5/lib-dynload/_csv.cpython-35m-x86_64-linux-gnu.so',
   'EXTENSION'),
  ('_json',
   '/usr/lib/python3.5/lib-dynload/_json.cpython-35m-x86_64-linux-gnu.so',
   'EXTENSION'),
  ('libglib-2.0.so.0', '/lib/x86_64-linux-gnu/libglib-2.0.so.0', 'BINARY'),
  ('libpcre.so.3', '/lib/x86_64-linux-gnu/libpcre.so.3', 'BINARY'),
  ('libXau.so.6', '/usr/lib/x86_64-linux-gnu/libXau.so.6', 'BINARY'),
  ('libXrender.so.1', '/usr/lib/x86_64-linux-gnu/libXrender.so.1', 'BINARY'),
  ('libuuid.so.1', '/lib/x86_64-linux-gnu/libuuid.so.1', 'BINARY'),
  ('libfontconfig.so.1',
   '/usr/lib/x86_64-linux-gnu/libfontconfig.so.1',
   'BINARY'),
  ('libICE.so.6', '/usr/lib/x86_64-linux-gnu/libICE.so.6', 'BINARY'),
  ('liblcms2.so.2', '/usr/lib/x86_64-linux-gnu/liblcms2.so.2', 'BINARY'),
  ('libXt.so.6', '/usr/lib/x86_64-linux-gnu/libXt.so.6', 'BINARY'),
  ('libXdmcp.so.6', '/usr/lib/x86_64-linux-gnu/libXdmcp.so.6', 'BINARY'),
  ('libgcc_s.so.1', '/lib/x86_64-linux-gnu/libgcc_s.so.1', 'BINARY'),
  ('libQtCore.so.4', '/usr/lib/x86_64-linux-gnu/libQtCore.so.4', 'BINARY'),
  ('libSM.so.6', '/usr/lib/x86_64-linux-gnu/libSM.so.6', 'BINARY'),
  ('libffi.so.6', '/usr/lib/x86_64-linux-gnu/libffi.so.6', 'BINARY'),
  ('libgobject-2.0.so.0',
   '/usr/lib/x86_64-linux-gnu/libgobject-2.0.so.0',
   'BINARY'),
  ('libaudio.so.2', '/usr/lib/x86_64-linux-gnu/libaudio.so.2', 'BINARY'),
  ('libX11.so.6', '/usr/lib/x86_64-linux-gnu/libX11.so.6', 'BINARY'),
  ('libstdc++.so.6', '/usr/lib/x86_64-linux-gnu/libstdc++.so.6', 'BINARY'),
  ('libfreetype.so.6', '/usr/lib/x86_64-linux-gnu/libfreetype.so.6', 'BINARY'),
  ('libmng.so.2', '/usr/lib/x86_64-linux-gnu/libmng.so.2', 'BINARY'),
  ('libXi.so.6', '/usr/lib/x86_64-linux-gnu/libXi.so.6', 'BINARY'),
  ('libXext.so.6', '/usr/lib/x86_64-linux-gnu/libXext.so.6', 'BINARY'),
  ('libjpeg.so.8', '/usr/lib/x86_64-linux-gnu/libjpeg.so.8', 'BINARY'),
  ('libpng12.so.0', '/lib/x86_64-linux-gnu/libpng12.so.0', 'BINARY'),
  ('libQtGui.so.4', '/usr/lib/x86_64-linux-gnu/libQtGui.so.4', 'BINARY'),
  ('libQtSql.so.4', '/usr/lib/x86_64-linux-gnu/libQtSql.so.4', 'BINARY'),
  ('libQt3Support.so.4',
   '/usr/lib/x86_64-linux-gnu/libQt3Support.so.4',
   'BINARY'),
  ('libQtNetwork.so.4',
   '/usr/lib/x86_64-linux-gnu/libQtNetwork.so.4',
   'BINARY'),
  ('libQtXml.so.4', '/usr/lib/x86_64-linux-gnu/libQtXml.so.4', 'BINARY'),
  ('libQtSvg.so.4', '/usr/lib/x86_64-linux-gnu/libQtSvg.so.4', 'BINARY'),
  ('libQtScript.so.4', '/usr/lib/x86_64-linux-gnu/libQtScript.so.4', 'BINARY'),
  ('libQtXmlPatterns.so.4',
   '/usr/lib/x86_64-linux-gnu/libQtXmlPatterns.so.4',
   'BINARY'),
  ('libQtDeclarative.so.4',
   '/usr/lib/x86_64-linux-gnu/libQtDeclarative.so.4',
   'BINARY'),
  ('libglapi.so.0', '/usr/lib/x86_64-linux-gnu/libglapi.so.0', 'BINARY'),
  ('libX11-xcb.so.1', '/usr/lib/x86_64-linux-gnu/libX11-xcb.so.1', 'BINARY'),
  ('libXdamage.so.1', '/usr/lib/x86_64-linux-gnu/libXdamage.so.1', 'BINARY'),
  ('libxcb-present.so.0',
   '/usr/lib/x86_64-linux-gnu/libxcb-present.so.0',
   'BINARY'),
  ('libxcb-glx.so.0', '/usr/lib/x86_64-linux-gnu/libxcb-glx.so.0', 'BINARY'),
  ('libXfixes.so.3', '/usr/lib/x86_64-linux-gnu/libXfixes.so.3', 'BINARY'),
  ('libxcb-sync.so.1', '/usr/lib/x86_64-linux-gnu/libxcb-sync.so.1', 'BINARY'),
  ('libdrm.so.2', '/usr/lib/x86_64-linux-gnu/libdrm.so.2', 'BINARY'),
  ('libxshmfence.so.1',
   '/usr/lib/x86_64-linux-gnu/libxshmfence.so.1',
   'BINARY'),
  ('libXxf86vm.so.1', '/usr/lib/x86_64-linux-gnu/libXxf86vm.so.1', 'BINARY'),
  ('libQtOpenGL.so.4', '/usr/lib/x86_64-linux-gnu/libQtOpenGL.so.4', 'BINARY'),
  ('liblzma.so.5', '/lib/x86_64-linux-gnu/liblzma.so.5', 'BINARY'),
  ('libtiff.so.5', '/usr/lib/x86_64-linux-gnu/libtiff.so.5', 'BINARY'),
  ('libjbig.so.0', '/usr/lib/x86_64-linux-gnu/libjbig.so.0', 'BINARY'),
  ('libpyside.cpython-35m-x86_64-linux-gnu.so.1.2',
   '/usr/lib/x86_64-linux-gnu/libpyside.cpython-35m-x86_64-linux-gnu.so.1.2',
   'BINARY'),
  ('libpython3.5m.so.1.0',
   '/usr/lib/x86_64-linux-gnu/libpython3.5m.so.1.0',
   'BINARY'),
  ('libshiboken.cpython-35m-x86_64-linux-gnu.so.1.2',
   '/usr/lib/x86_64-linux-gnu/libshiboken.cpython-35m-x86_64-linux-gnu.so.1.2',
   'BINARY'),
  ('libcrypto.so.1.0.0', '/lib/x86_64-linux-gnu/libcrypto.so.1.0.0', 'BINARY'),
  ('libssl.so.1.0.0', '/lib/x86_64-linux-gnu/libssl.so.1.0.0', 'BINARY'),
  ('libreadline.so.6', '/lib/x86_64-linux-gnu/libreadline.so.6', 'BINARY'),
  ('libtinfo.so.5', '/lib/x86_64-linux-gnu/libtinfo.so.5', 'BINARY'),
  ('libbz2.so.1.0', '/lib/x86_64-linux-gnu/libbz2.so.1.0', 'BINARY'),
  ('liburiparser.so.1',
   '/usr/lib/x86_64-linux-gnu/liburiparser.so.1',
   'BINARY'),
  ('libgcrypt.so.20', '/lib/x86_64-linux-gnu/libgcrypt.so.20', 'BINARY'),
  ('libkmldom.so.1', '/usr/lib/x86_64-linux-gnu/libkmldom.so.1', 'BINARY'),
  ('libtheoraenc.so.1',
   '/usr/lib/x86_64-linux-gnu/libtheoraenc.so.1',
   'BINARY'),
  ('libtwolame.so.0', '/usr/lib/x86_64-linux-gnu/libtwolame.so.0', 'BINARY'),
  ('libopencv_features2d.so.3.4',
   '/usr/local/lib/libopencv_features2d.so.3.4',
   'BINARY'),
  ('libhdf5_serial.so.10',
   '/usr/lib/x86_64-linux-gnu/libhdf5_serial.so.10',
   'BINARY'),
  ('libogg.so.0', '/usr/lib/x86_64-linux-gnu/libogg.so.0', 'BINARY'),
  ('libopencv_videoio.so.3.4',
   '/usr/local/lib/libopencv_videoio.so.3.4',
   'BINARY'),
  ('libxine.so.2', '/usr/lib/libxine.so.2', 'BINARY'),
  ('libdapclient.so.6',
   '/usr/lib/x86_64-linux-gnu/libdapclient.so.6',
   'BINARY'),
  ('libgssapi_krb5.so.2',
   '/usr/lib/x86_64-linux-gnu/libgssapi_krb5.so.2',
   'BINARY'),
  ('libopencv_video.so.3.4', '/usr/local/lib/libopencv_video.so.3.4', 'BINARY'),
  ('libicudata.so.55', '/usr/lib/x86_64-linux-gnu/libicudata.so.55', 'BINARY'),
  ('libvorbisenc.so.2',
   '/usr/lib/x86_64-linux-gnu/libvorbisenc.so.2',
   'BINARY'),
  ('libopus.so.0', '/usr/lib/x86_64-linux-gnu/libopus.so.0', 'BINARY'),
  ('libogdi.so.3.2', '/usr/lib/libogdi.so.3.2', 'BINARY'),
  ('libsoxr.so.0', '/usr/lib/x86_64-linux-gnu/libsoxr.so.0', 'BINARY'),
  ('libpoppler.so.58', '/usr/lib/x86_64-linux-gnu/libpoppler.so.58', 'BINARY'),
  ('libheimntlm.so.0', '/usr/lib/x86_64-linux-gnu/libheimntlm.so.0', 'BINARY'),
  ('libgphoto2_port.so.12',
   '/usr/lib/x86_64-linux-gnu/libgphoto2_port.so.12',
   'BINARY'),
  ('libgnutls.so.30', '/usr/lib/x86_64-linux-gnu/libgnutls.so.30', 'BINARY'),
  ('libgmp.so.10', '/usr/lib/x86_64-linux-gnu/libgmp.so.10', 'BINARY'),
  ('libopencv_highgui.so.3.4',
   '/usr/local/lib/libopencv_highgui.so.3.4',
   'BINARY'),
  ('libxerces-c-3.1.so',
   '/usr/lib/x86_64-linux-gnu/libxerces-c-3.1.so',
   'BINARY'),
  ('libxml2.so.2', '/usr/lib/x86_64-linux-gnu/libxml2.so.2', 'BINARY'),
  ('libopenjpeg.so.5', '/usr/lib/x86_64-linux-gnu/libopenjpeg.so.5', 'BINARY'),
  ('libarmadillo.so.6', '/usr/lib/libarmadillo.so.6', 'BINARY'),
  ('libIlmImf-2_2.so.22',
   '/usr/lib/x86_64-linux-gnu/libIlmImf-2_2.so.22',
   'BINARY'),
  ('libvorbis.so.0', '/usr/lib/x86_64-linux-gnu/libvorbis.so.0', 'BINARY'),
  ('libIex-2_2.so.12', '/usr/lib/x86_64-linux-gnu/libIex-2_2.so.12', 'BINARY'),
  ('libtbb.so.2', '/usr/lib/x86_64-linux-gnu/libtbb.so.2', 'BINARY'),
  ('liborc-0.4.so.0', '/usr/lib/x86_64-linux-gnu/liborc-0.4.so.0', 'BINARY'),
  ('libgomp.so.1', '/usr/lib/x86_64-linux-gnu/libgomp.so.1', 'BINARY'),
  ('libpq.so.5', '/usr/lib/x86_64-linux-gnu/libpq.so.5', 'BINARY'),
  ('libgstriff-0.10.so.0',
   '/usr/lib/x86_64-linux-gnu/libgstriff-0.10.so.0',
   'BINARY'),
  ('libopencv_ml.so.3.4', '/usr/local/lib/libopencv_ml.so.3.4', 'BINARY'),
  ('libavformat-ffmpeg.so.56',
   '/usr/lib/x86_64-linux-gnu/libavformat-ffmpeg.so.56',
   'BINARY'),
  ('libsz.so.2', '/usr/lib/x86_64-linux-gnu/libsz.so.2', 'BINARY'),
  ('libkmlengine.so.1',
   '/usr/lib/x86_64-linux-gnu/libkmlengine.so.1',
   'BINARY'),
  ('libssh-gcrypt.so.4',
   '/usr/lib/x86_64-linux-gnu/libssh-gcrypt.so.4',
   'BINARY'),
  ('libk5crypto.so.3', '/usr/lib/x86_64-linux-gnu/libk5crypto.so.3', 'BINARY'),
  ('libgeos_c.so.1', '/usr/lib/x86_64-linux-gnu/libgeos_c.so.1', 'BINARY'),
  ('libraw1394.so.11', '/usr/lib/x86_64-linux-gnu/libraw1394.so.11', 'BINARY'),
  ('libdfalt.so.0', '/usr/lib/libdfalt.so.0', 'BINARY'),
  ('libhcrypto.so.4', '/usr/lib/x86_64-linux-gnu/libhcrypto.so.4', 'BINARY'),
  ('libwavpack.so.1', '/usr/lib/x86_64-linux-gnu/libwavpack.so.1', 'BINARY'),
  ('libsqlite3.so.0', '/usr/lib/x86_64-linux-gnu/libsqlite3.so.0', 'BINARY'),
  ('libopencv_imgproc.so.3.4',
   '/usr/local/lib/libopencv_imgproc.so.3.4',
   'BINARY'),
  ('libepsilon.so.1', '/usr/lib/x86_64-linux-gnu/libepsilon.so.1', 'BINARY'),
  ('libdap.so.17', '/usr/lib/x86_64-linux-gnu/libdap.so.17', 'BINARY'),
  ('libudev.so.1', '/lib/x86_64-linux-gnu/libudev.so.1', 'BINARY'),
  ('libjasper.so.1', '/usr/lib/x86_64-linux-gnu/libjasper.so.1', 'BINARY'),
  ('libmodplug.so.1', '/usr/lib/x86_64-linux-gnu/libmodplug.so.1', 'BINARY'),
  ('libgmodule-2.0.so.0',
   '/usr/lib/x86_64-linux-gnu/libgmodule-2.0.so.0',
   'BINARY'),
  ('libxvidcore.so.4', '/usr/lib/x86_64-linux-gnu/libxvidcore.so.4', 'BINARY'),
  ('libQt5OpenGL.so.5',
   '/usr/lib/x86_64-linux-gnu/libQt5OpenGL.so.5',
   'BINARY'),
  ('libgstreamer-0.10.so.0',
   '/usr/lib/x86_64-linux-gnu/libgstreamer-0.10.so.0',
   'BINARY'),
  ('libgstbase-0.10.so.0',
   '/usr/lib/x86_64-linux-gnu/libgstbase-0.10.so.0',
   'BINARY'),
  ('libgdal.so.1', '/usr/lib/libgdal.so.1', 'BINARY'),
  ('libsnappy.so.1', '/usr/lib/x86_64-linux-gnu/libsnappy.so.1', 'BINARY'),
  ('libopencv_shape.so.3.4', '/usr/local/lib/libopencv_shape.so.3.4', 'BINARY'),
  ('libx265.so.79', '/usr/lib/x86_64-linux-gnu/libx265.so.79', 'BINARY'),
  ('libopenjp2.so.7', '/usr/lib/x86_64-linux-gnu/libopenjp2.so.7', 'BINARY'),
  ('libhx509.so.5', '/usr/lib/x86_64-linux-gnu/libhx509.so.5', 'BINARY'),
  ('libnettle.so.6', '/usr/lib/x86_64-linux-gnu/libnettle.so.6', 'BINARY'),
  ('libroken.so.18', '/usr/lib/x86_64-linux-gnu/libroken.so.18', 'BINARY'),
  ('libgpg-error.so.0', '/lib/x86_64-linux-gnu/libgpg-error.so.0', 'BINARY'),
  ('liblber-2.4.so.2', '/usr/lib/x86_64-linux-gnu/liblber-2.4.so.2', 'BINARY'),
  ('libopencv_flann.so.3.4', '/usr/local/lib/libopencv_flann.so.3.4', 'BINARY'),
  ('libspeex.so.1', '/usr/lib/x86_64-linux-gnu/libspeex.so.1', 'BINARY'),
  ('libgstaudio-0.10.so.0',
   '/usr/lib/x86_64-linux-gnu/libgstaudio-0.10.so.0',
   'BINARY'),
  ('libexif.so.12', '/usr/lib/x86_64-linux-gnu/libexif.so.12', 'BINARY'),
  ('libopencv_stitching.so.3.4',
   '/usr/local/lib/libopencv_stitching.so.3.4',
   'BINARY'),
  ('libQt5Core.so.5', '/usr/lib/x86_64-linux-gnu/libQt5Core.so.5', 'BINARY'),
  ('liblapack.so.3', '/usr/lib/liblapack.so.3', 'BINARY'),
  ('libquadmath.so.0', '/usr/lib/x86_64-linux-gnu/libquadmath.so.0', 'BINARY'),
  ('libopencv_calib3d.so.3.4',
   '/usr/local/lib/libopencv_calib3d.so.3.4',
   'BINARY'),
  ('libopencv_dnn.so.3.4', '/usr/local/lib/libopencv_dnn.so.3.4', 'BINARY'),
  ('libkeyutils.so.1', '/lib/x86_64-linux-gnu/libkeyutils.so.1', 'BINARY'),
  ('libhdf5_serial_hl.so.10',
   '/usr/lib/x86_64-linux-gnu/libhdf5_serial_hl.so.10',
   'BINARY'),
  ('libopencv_imgcodecs.so.3.4',
   '/usr/local/lib/libopencv_imgcodecs.so.3.4',
   'BINARY'),
  ('libheimbase.so.1', '/usr/lib/x86_64-linux-gnu/libheimbase.so.1', 'BINARY'),
  ('librtmp.so.1', '/usr/lib/x86_64-linux-gnu/librtmp.so.1', 'BINARY'),
  ('libsasl2.so.2', '/usr/lib/x86_64-linux-gnu/libsasl2.so.2', 'BINARY'),
  ('libQt5Gui.so.5', '/usr/lib/x86_64-linux-gnu/libQt5Gui.so.5', 'BINARY'),
  ('libp11-kit.so.0', '/usr/lib/x86_64-linux-gnu/libp11-kit.so.0', 'BINARY'),
  ('libgstpbutils-0.10.so.0',
   '/usr/lib/x86_64-linux-gnu/libgstpbutils-0.10.so.0',
   'BINARY'),
  ('libspatialite.so.7',
   '/usr/lib/x86_64-linux-gnu/libspatialite.so.7',
   'BINARY'),
  ('libcom_err.so.2', '/lib/x86_64-linux-gnu/libcom_err.so.2', 'BINARY'),
  ('libasn1.so.8', '/usr/lib/x86_64-linux-gnu/libasn1.so.8', 'BINARY'),
  ('libdc1394.so.22', '/usr/lib/x86_64-linux-gnu/libdc1394.so.22', 'BINARY'),
  ('libnetcdf.so.11', '/usr/lib/x86_64-linux-gnu/libnetcdf.so.11', 'BINARY'),
  ('libmysqlclient.so.20',
   '/usr/lib/x86_64-linux-gnu/libmysqlclient.so.20',
   'BINARY'),
  ('libschroedinger-1.0.so.0',
   '/usr/lib/x86_64-linux-gnu/libschroedinger-1.0.so.0',
   'BINARY'),
  ('libgphoto2.so.6', '/usr/lib/x86_64-linux-gnu/libgphoto2.so.6', 'BINARY'),
  ('libgssapi.so.3', '/usr/lib/x86_64-linux-gnu/libgssapi.so.3', 'BINARY'),
  ('libusb-1.0.so.0', '/lib/x86_64-linux-gnu/libusb-1.0.so.0', 'BINARY'),
  ('libvpx.so.3', '/usr/lib/x86_64-linux-gnu/libvpx.so.3', 'BINARY'),
  ('libgme.so.0', '/usr/lib/x86_64-linux-gnu/libgme.so.0', 'BINARY'),
  ('libproj.so.9', '/usr/lib/x86_64-linux-gnu/libproj.so.9', 'BINARY'),
  ('libkmlbase.so.1', '/usr/lib/x86_64-linux-gnu/libkmlbase.so.1', 'BINARY'),
  ('libgeos-3.5.0.so', '/usr/lib/x86_64-linux-gnu/libgeos-3.5.0.so', 'BINARY'),
  ('libhogweed.so.4', '/usr/lib/x86_64-linux-gnu/libhogweed.so.4', 'BINARY'),
  ('libtheoradec.so.1',
   '/usr/lib/x86_64-linux-gnu/libtheoradec.so.1',
   'BINARY'),
  ('libkrb5support.so.0',
   '/usr/lib/x86_64-linux-gnu/libkrb5support.so.0',
   'BINARY'),
  ('libnuma.so.1', '/usr/lib/x86_64-linux-gnu/libnuma.so.1', 'BINARY'),
  ('libx264.so.148', '/usr/lib/x86_64-linux-gnu/libx264.so.148', 'BINARY'),
  ('libltdl.so.7', '/usr/lib/x86_64-linux-gnu/libltdl.so.7', 'BINARY'),
  ('libidn.so.11', '/usr/lib/x86_64-linux-gnu/libidn.so.11', 'BINARY'),
  ('libharfbuzz.so.0', '/usr/lib/x86_64-linux-gnu/libharfbuzz.so.0', 'BINARY'),
  ('libopencv_core.so.3.4', '/usr/local/lib/libopencv_core.so.3.4', 'BINARY'),
  ('libodbcinst.so.2', '/usr/lib/x86_64-linux-gnu/libodbcinst.so.2', 'BINARY'),
  ('libldap_r-2.4.so.2',
   '/usr/lib/x86_64-linux-gnu/libldap_r-2.4.so.2',
   'BINARY'),
  ('libgfortran.so.3', '/usr/lib/x86_64-linux-gnu/libgfortran.so.3', 'BINARY'),
  ('libmfhdfalt.so.0', '/usr/lib/libmfhdfalt.so.0', 'BINARY'),
  ('libswresample-ffmpeg.so.1',
   '/usr/lib/x86_64-linux-gnu/libswresample-ffmpeg.so.1',
   'BINARY'),
  ('libbluray.so.1', '/usr/lib/x86_64-linux-gnu/libbluray.so.1', 'BINARY'),
  ('libavutil-ffmpeg.so.54',
   '/usr/lib/x86_64-linux-gnu/libavutil-ffmpeg.so.54',
   'BINARY'),
  ('libfreexl.so.1', '/usr/lib/x86_64-linux-gnu/libfreexl.so.1', 'BINARY'),
  ('libgstapp-0.10.so.0',
   '/usr/lib/x86_64-linux-gnu/libgstapp-0.10.so.0',
   'BINARY'),
  ('libkrb5.so.3', '/usr/lib/x86_64-linux-gnu/libkrb5.so.3', 'BINARY'),
  ('libgif.so.7', '/usr/lib/x86_64-linux-gnu/libgif.so.7', 'BINARY'),
  ('libcrystalhd.so.3',
   '/usr/lib/x86_64-linux-gnu/libcrystalhd.so.3',
   'BINARY'),
  ('libgraphite2.so.3',
   '/usr/lib/x86_64-linux-gnu/libgraphite2.so.3',
   'BINARY'),
  ('libpcre16.so.3', '/usr/lib/x86_64-linux-gnu/libpcre16.so.3', 'BINARY'),
  ('libodbc.so.2', '/usr/lib/x86_64-linux-gnu/libodbc.so.2', 'BINARY'),
  ('libarpack.so.2', '/usr/lib/libarpack.so.2', 'BINARY'),
  ('libtasn1.so.6', '/usr/lib/x86_64-linux-gnu/libtasn1.so.6', 'BINARY'),
  ('libopencv_objdetect.so.3.4',
   '/usr/local/lib/libopencv_objdetect.so.3.4',
   'BINARY'),
  ('libatlas.so.3', '/usr/lib/libatlas.so.3', 'BINARY'),
  ('libicui18n.so.55', '/usr/lib/x86_64-linux-gnu/libicui18n.so.55', 'BINARY'),
  ('libQt5Test.so.5', '/usr/lib/x86_64-linux-gnu/libQt5Test.so.5', 'BINARY'),
  ('libQt5Widgets.so.5',
   '/usr/lib/x86_64-linux-gnu/libQt5Widgets.so.5',
   'BINARY'),
  ('libswscale-ffmpeg.so.3',
   '/usr/lib/x86_64-linux-gnu/libswscale-ffmpeg.so.3',
   'BINARY'),
  ('libaec.so.0', '/usr/lib/x86_64-linux-gnu/libaec.so.0', 'BINARY'),
  ('libmp3lame.so.0', '/usr/lib/x86_64-linux-gnu/libmp3lame.so.0', 'BINARY'),
  ('libgsm.so.1', '/usr/lib/x86_64-linux-gnu/libgsm.so.1', 'BINARY'),
  ('libkrb5.so.26', '/usr/lib/x86_64-linux-gnu/libkrb5.so.26', 'BINARY'),
  ('libgstvideo-0.10.so.0',
   '/usr/lib/x86_64-linux-gnu/libgstvideo-0.10.so.0',
   'BINARY'),
  ('libwebp.so.5', '/usr/lib/x86_64-linux-gnu/libwebp.so.5', 'BINARY'),
  ('libshine.so.3', '/usr/lib/x86_64-linux-gnu/libshine.so.3', 'BINARY'),
  ('libsuperlu.so.4', '/usr/lib/x86_64-linux-gnu/libsuperlu.so.4', 'BINARY'),
  ('libIlmThread-2_2.so.12',
   '/usr/lib/x86_64-linux-gnu/libIlmThread-2_2.so.12',
   'BINARY'),
  ('libopencv_photo.so.3.4', '/usr/local/lib/libopencv_photo.so.3.4', 'BINARY'),
  ('libcurl-gnutls.so.4',
   '/usr/lib/x86_64-linux-gnu/libcurl-gnutls.so.4',
   'BINARY'),
  ('libHalf.so.12', '/usr/lib/x86_64-linux-gnu/libHalf.so.12', 'BINARY'),
  ('libgstinterfaces-0.10.so.0',
   '/usr/lib/x86_64-linux-gnu/libgstinterfaces-0.10.so.0',
   'BINARY'),
  ('libzvbi.so.0', '/usr/lib/x86_64-linux-gnu/libzvbi.so.0', 'BINARY'),
  ('libgsttag-0.10.so.0',
   '/usr/lib/x86_64-linux-gnu/libgsttag-0.10.so.0',
   'BINARY'),
  ('libva.so.1', '/usr/lib/x86_64-linux-gnu/libva.so.1', 'BINARY'),
  ('libwind.so.0', '/usr/lib/x86_64-linux-gnu/libwind.so.0', 'BINARY'),
  ('libicuuc.so.55', '/usr/lib/x86_64-linux-gnu/libicuuc.so.55', 'BINARY'),
  ('libavcodec-ffmpeg.so.56',
   '/usr/lib/x86_64-linux-gnu/libavcodec-ffmpeg.so.56',
   'BINARY'),
  ('libblas.so.3', '/usr/lib/libblas.so.3', 'BINARY'),
  ('libminizip.so.1', '/usr/lib/x86_64-linux-gnu/libminizip.so.1', 'BINARY'),
  ('libgfortran-ed201abd.so.3.0.0',
   '/usr/local/lib/python3.5/dist-packages/numpy/core/../.libs/libgfortran-ed201abd.so.3.0.0',
   'BINARY'),
  ('libopenblasp-r0-39a31c03.2.18.so',
   '/usr/local/lib/python3.5/dist-packages/numpy/core/../.libs/libopenblasp-r0-39a31c03.2.18.so',
   'BINARY'),
  ('libncursesw.so.5', '/lib/x86_64-linux-gnu/libncursesw.so.5', 'BINARY'),
  ('libopenblasp-r0-8dca6697.3.0.dev.so',
   '/usr/local/lib/python3.5/dist-packages/scipy/special/../.libs/libopenblasp-r0-8dca6697.3.0.dev.so',
   'BINARY'),
  ('libmpdec.so.2', '/usr/lib/x86_64-linux-gnu/libmpdec.so.2', 'BINARY'),
  ('libwebpmux.so.1', '/usr/lib/x86_64-linux-gnu/libwebpmux.so.1', 'BINARY'),
  ('libhdf5_hl-db841637.so.100.1.1',
   '/usr/local/lib/python3.5/dist-packages/h5py/.libs/libhdf5_hl-db841637.so.100.1.1',
   'BINARY'),
  ('libhdf5-8c568c27.so.103.0.0',
   '/usr/local/lib/python3.5/dist-packages/h5py/.libs/libhdf5-8c568c27.so.103.0.0',
   'BINARY'),
  ('libsz-1c7dd0cf.so.2.0.1',
   '/usr/local/lib/python3.5/dist-packages/h5py/.libs/./libsz-1c7dd0cf.so.2.0.1',
   'BINARY'),
  ('libaec-2147abcd.so.0.0.4',
   '/usr/local/lib/python3.5/dist-packages/h5py/.libs/./libaec-2147abcd.so.0.0.4',
   'BINARY'),
  ('libz-a147dcb0.so.1.2.3',
   '/usr/local/lib/python3.5/dist-packages/h5py/.libs/./libz-a147dcb0.so.1.2.3',
   'BINARY'),
  ('libtensorflow_framework.so',
   '/usr/local/lib/python3.5/dist-packages/tensorflow/python/../libtensorflow_framework.so',
   'BINARY'),
  ('base_library.zip',
   '/home/robotics45c/Desktop/rov2019/Robot/Systems/build/gui/base_library.zip',
   'DATA'),
  ('lib/python3.5/config-3.5m-x86_64-linux-gnu/Makefile',
   '/usr/lib/python3.5/config-3.5m-x86_64-linux-gnu/Makefile',
   'DATA'),
  ('lib2to3/Grammar.txt', '/usr/lib/python3.5/lib2to3/Grammar.txt', 'DATA'),
  ('lib2to3/PatternGrammar.txt',
   '/usr/lib/python3.5/lib2to3/PatternGrammar.txt',
   'DATA'),
  ('include/python3.5m/pyconfig.h',
   '/usr/include/python3.5m/pyconfig.h',
   'DATA')],
 [],
 False,
 False,
 1557535139,
 [('run',
   '/usr/local/lib/python3.5/dist-packages/PyInstaller/bootloader/Linux-64bit/run',
   'EXECUTABLE')])
